
[
  {
    "id": "product_1",
    "name": "iPhone X",
    "parentId": "category_2",
    "type": "product",
    "price": 999.99
  },
  {
    "id": "product_2",
    "name": "Samsung Galaxy S9",
    "parentId": "category_2",
    "type": "product",
    "price": 899.99
  },
  {
    "id": "product_3",
    "name": "Xiaomi Mi 9",
    "parentId": "category_2",
    "type": "product",
    "price": 599.99
  },
  {
    "id": "product_4",
    "name": "MacBook Air",
    "parentId": "category_3",
    "type": "product",
    "price": 1299.99
  },
  {
    "id": "product_5",
    "name": "Dell XPS 13",
    "parentId": "category_3",
    "type": "product",
    "price": 1199.99
  },
  {
    "id": "product_6",
    "name": "HP Pavilion",
    "parentId": "category_3",
    "type": "product",
    "price": 999.99
  },
  {
    "id": "product_7",
    "name": "Gaming PC",
    "parentId": "category_4",
    "type": "product",
    "price": 1999.99
  },
  {
    "id": "product_8",
    "name": "All-in-One PC",
    "parentId": "category_4",
    "type": "product",
    "price": 1499.99
  },
  {
    "id": "product_9",
    "name": "Mini PC",
    "parentId": "category_4",
    "type": "product",
    "price": 599.99
  },
  {
    "id": "product_10",
    "name": "Refrigerator Samsung",
    "parentId": "category_6",
    "type": "product",
    "price": 999.99
  },
  {
    "id": "product_11",
    "name": "Refrigerator LG",
    "parentId": "category_6",
    "type": "product",
    "price": 899.99
  },
  {
    "id": "product_12",
    "name": "Washing machine Bosch",
    "parentId": "category_7",
    "type": "product",
    "price": 799.99
  },
  {
    "id": "product_13",
    "name": "Washing machine LG",
    "parentId": "category_7",
    "type": "product",
    "price": 899.99
  },
  {
    "id": "product_14",
    "name": "Vacuum cleaner Dyson",
    "parentId": "category_8",
    "type": "product",
    "price": 499.99
  },
  {
    "id": "product_15",
    "name": "Vacuum cleaner Xiaomi",
    "parentId": "category_8",
    "type": "product",
    "price": 299.99
  },
  {
    "id": "product_16",
    "name": "Air purifier Philips",
    "parentId": "category_9",
    "type": "product",
    "price": 199.99
  },
  {
    "id": "product_17",
    "name": "Air purifier Xiaomi",
    "parentId": "category_9",
    "type": "product",
    "price": 149.99
  },
  {
    "id": "product_18",
    "name": "Coffee machine DeLonghi",
    "parentId": "category_10",
    "type": "product",
    "price": 299.99
  },
  {
    "id": "product_19",
    "name": "Coffee machine Philips",
    "parentId": "category_10",
    "type": "product",
    "price": 199.99
  },
  {
    "id": "product_20",
    "name": "Toaster Bosch",
    "parentId": "category_5",
    "type": "product",
    "price": 43.99
  }
]
